…
Evaluation bias is the result of methods that are not applicable to a target population. For the purposes of this project, evaluation bias may less of a concern.

Thrive Market attracts health- and planet-conscious consumers. It will be important to highlight that the results of this project may not be applicable to products aimed at another type of consumer. For instance, in answering the research question (which features are predictive of customer satisfaction?), the insights may not be relevant to products sold at other e-commerce retailers, such as Amazon or Wal-Mart.

Quality

The third limitation is the untidiness of the “raw” Thrive Market data set. However, this is a common issue in data science. To date, I have devoted ~85% of my time on this project preparing the data set for engineering and modeling. For example, the various categories of customer values were indistinguishable. It was difficult to differentiate between awards, diet, and social values. Categories that appeared in one column, such as Gluten-Free, for one product, appeared in another column for other products. Consequently, I collapsed all values into a single values category as these appear on the e-commerce site under a single category.

Exploratory Data Analysis

There are 58 brands in the data set.

all_brands

## # A tibble: 58 × 2
##    brand               n
##    <chr>           <int>
##  1 A Dozen Cousins     3
##  2 Amore               2
##  3 Annie's             3
##  4 Biena               1
##  5 Bionaturae          2
##  6 Bragg               1
##  7 Brami               5
##  8 Cholula             1
##  9 Chosen Foods        1
## 10 Coconut Secret      2
## # … with 48 more rows
…
